HT1
…
#obtenemos la correlacion de spearman para saber si la cantidad de autores influye en el ingreso 
cor(x = datos$actorsAmount, y = datos$revenue, method = "spearman")

## [1] 0.5561046

#hacemos una tabla para ver si hay mas 
df8 <- separate_rows(datos,releaseYear,actorsAmount) %>%
  group_by(releaseYear) %>% summarize( Actores = sum(actorsAmount))
df8 <- df8[order(df8$releaseYear, decreasing = TRUE),]
df8

## # A tibble: 99 × 2
##    releaseYear Actores
##          <int>   <int>
##  1        2022      85
##  2        2021 2601837
##  3        2020 1509624
##  4        2019 1290019
##  5        2018 2451055
##  6        2017 2220481
##  7        2016 2290345
##  8        2015  631392
##  9        2014  947559
## 10        2013  770668
## # … with 89 more rows
…
